Joining data
…
- Usually combine many tables of data to answer questions

- Multiple tables of data are called relational data.

---

For example, `raw_ratings` has one row per episode of The Office <br/> and contains the average IMDB rating.

```r
raw_ratings
```

```
## # A tibble: 188 x 5
##    season episode title             imdb_rating total_votes
##     <dbl>   <dbl> <chr>                   <dbl>       <dbl>
##  1      1       1 Pilot                     7.6        3706
##  2      1       2 Diversity Day             8.3        3566
##  3      1       3 Health Care               7.9        2983
##  4      1       4 The Alliance              8.1        2886
##  5      1       5 Basketball                8.4        3179
##  6      1       6 Hot Girl                  7.8        2852
##  7      2       1 The Dundies               8.7        3213
##  8      2       2 Sexual Harassment         8.2        2736
##  9      2       3 Office Olympics           8.4        2742
## 10      2       4 The Fire                  8.4        2713
## # ... with 178 more rows
```

---

On the other hand, `raw_directors` has one row per writer for <br/> each episode and also specifies the episode's director.

```r
raw_directors
```

```
## # A tibble: 223 x 4
##    season episode_name      director        writer          
##     <int> <chr>             <chr>           <chr>           
##  1      1 Pilot             Ken Kwapis      Ricky Gervais   
##  2      1 Pilot             Ken Kwapis      Stephen Merchant
##  3      1 Pilot             Ken Kwapis      Greg Daniels    
##  4      1 Diversity Day     Ken Kwapis      B.J. Novak      
##  5      1 Health Care       Ken Whittingham Paul Lieberstein
##  6      1 The Alliance      Bryan Gordon    Michael Schur   
##  7      1 Basketball        Greg Daniels    Greg Daniels    
##  8      1 Hot Girl          Amy Heckerling  Mindy Kaling    
##  9      2 The Dundies       Greg Daniels    Mindy Kaling    
## 10      2 Sexual Harassment Ken Kwapis      B.J. Novak      
## # ... with 213 more rows
```
…
## Joining verbs

An example of __Filtering join:__

```r
# Find episode names that don't match
raw_ratings %>% 
  select(episode_name = title, imdb_rating) %>% 
  anti_join(raw_directors)
```

```
## # A tibble: 28 x 2
##    episode_name            imdb_rating
##    <chr>                         <dbl>
##  1 E-Mail Surveillance             8.4
##  2 Boys and Girls                  8.2
##  3 A Benihana Christmas            8.7
##  4 The Job                         9.3
##  5 Fun Run                         8.8
##  6 Dunder Mifflin Infinity         8.4
##  7 Launch Party                    8.5
##  8 Money                           8.7
##  9 Goodbye, Toby                   9.3
## 10 Weight Loss                     8.8
## # ... with 18 more rows
```
…
## Joining verbs

An example of __Filtering join:__

```r
# Flip data sets to see why
raw_directors %>% 
  select(title = episode_name, director) %>% 
  anti_join(raw_ratings)
```

```
## # A tibble: 32 x 2
##    title                               director       
##    <chr>                               <chr>          
##  1 E-Mail Surveilance                  Paul Feig      
##  2 Boys & Girls                        Dennie Gordon  
##  3 A Benihana Christmas (Parts 1&2)    Harold Ramis   
##  4 The Job (Parts 1&2)                 Ken Kwapis     
##  5 The Job (Parts 1&2)                 Ken Kwapis     
##  6 Fun Run (Parts 1&2)                 Greg Daniels   
##  7 Dunder Mifflin Infinity (Parts 1&2) Craig Zisk     
##  8 Launch Party (Parts 1&2)            Ken Whittingham
##  9 Money (Parts 1&2)                   Paul Lieerstein
## 10 Goodbye, Toby (Parts 1&2)           Paul Feig      
## # ... with 22 more rows
```
…
